[{
		"sketchId": 1,
		"sketchName": "house",
		"shapes": [{
			"shapeId": 1,
			"shapeType": "TRIANGLE",
			"size": {
				"base": 150,
				"height": 150
			},
			"colour":"BLUE",
			"plottingLocation": {
				"x": 0,
				"y": -100,
				"angle": 0
			},
			"referenceLocation": {
				"x": 0,
				"y": 0,
				"angle": 0
			},
			"relativeTo": [{
				"shapeId": 3,
				"shapeType": "RECTANGLE",
				"colour":"BLUE",
				"referenceLocation": {
					"x": "ignore",
					"y": "top",
					"angle": 0
				},
				"playersInContact": []
			}]
		}, {
			"shapeId": 3,
			"shapeType": "RECTANGLE",
			"size": {
				"base": 150,
				"height": 75
			},
			"colour":"BLUE",
			"plottingLocation": {
				"x": 0,
				"y": -20,
				"angle": 0
			},
			"referenceLocation": {
				"x": 0,
				"y": 0,
				"angle": 0
			},
			"relativeTo": [{
				"shapeId": 1,
				"shapeType": "TRIANGLE",
				"colour":"BLUE",
				"referenceLocation": {
					"x": "ignore",
					"y": "bottom",
					"angle": 0
				},
				"playersInContact": []
			}]
		}]
	}, {
		"sketchId": 2,
		"sketchName": "ice-cream",
		"shapes": [{
				"shapeId": 1,
				"shapeType": "TRIANGLE",
				"size": {
					"base": 150,
					"height": 150
				},
				"colour":"BLUE",
				"plottingLocation": {
					"x": 0,
					"y": 4,
					"angle": 180
				},
				"referenceLocation": {
					"x": 0,
					"y": 0,
					"angle": 0
				},
				"relativeTo": [{
					"shapeId": 5,
					"shapeType": "SEMICIRCLE",
					"colour":"BLUE",
					"referenceLocation": {
						"x": "ignore",
						"y": "bottom",
						"angle": 0
					},
					"playersInContact": []
				}]
			}, {
				"shapeId": 5,
				"shapeType": "SEMICIRCLE",
				"size": {
					"radius": 150
				},
				"colour":"BLUE",
				"plottingLocation": {
					"x": 0,
					"y": 0,
					"angle": 0
				},
				"referenceLocation": {
					"x": 0,
					"y": 0,
					"angle": 0
				},
				"relativeTo": [{
					"shapeId": 1,
					"shapeType": "TRIANGLE",
					"colour":"BLUE",
					"referenceLocation": {
						"x": "ignore",
						"y": "top",
						"angle": 180
					},
					"playersInContact": []
				}]
			}
		]
	}, {
		"sketchId": 3,
		"sketchName": "car",
		"shapes": [{
				"shapeId": 3,
				"shapeType": "RECTANGLE",
				"size": {
					"base": 150,
					"height": 100
				},
				"colour":"BLUE",
				"plottingLocation": {
					"x": 0,
					"y": -100,
					"angle": 0
				},
				"referenceLocation": {
					"x": 0,
					"y": 0,
					"angle": 0
				},
				"relativeTo": [{
						"shapeId": 5,
						"shapeType": "SEMICIRCLE",
						"colour":"BLUE",
						"reference_Location": {
							"x": "ignore",
							"y": "bottom",
							"angle": 0
						},
						"playersInContact": []
					}, {
						"shapeId": 3,
						"shapeType": "RECTANGLE",
						"colour":"BLUE",
						"reference_Location": {
							"x": "ignore",
							"y": "top",
							"angle": 0
						},
						"playersInContact": []
					}

				]
			}, {
				"shapeId": 5,
				"shapeType": "SEMICIRCLE",
				"size": {
					"radius": 25
				},
				"colour":"BLUE",
				"plottingLocation": {
					"x": -100,
					"y": -25,
					"angle": 0
				},
				"referenceLocation": {
					"x": 0,
					"y": 0,
					"angle": 0
				},
				"relativeTo": [{
					"shapeId": 1,
					"shapeType": "TRIANGLE",
					"colour":"BLUE",
					"referenceLocation": {
						"x": "ignore",
						"y": "top",
						"angle": 180
					},
					"playersInContact": []
				}]
			},

			{
				"shapeId": 5,
				"shapeType": "SEMICIRCLE",
				"size": {
					"radius": 25
				},
				"colour":"BLUE",
				"plottingLocation": {
					"x": 100,
					"y": -25,
					"angle": 0
				},
				"referenceLocation": {
					"x": 0,
					"y": 0,
					"angle": 180
				},
				"relativeTo": [{
					"shapeId": 1,
					"shapeType": "TRIANGLE",
					"colour":"BLUE",
					"referenceLocation": {
						"x": "ignore",
						"y": "top",
						"angle": 0
					},
					"playersInContact": []
				}]
			}, {
				"shapeId": 3,
				"shapeType": "RECTANGLE",
				"size": {
					"base": 100,
					"height": 50
				},
				"colour":"BLUE",
				"plottingLocation": {
					"x": 0,
					"y": -25,
					"angle": 0
				},
				"referenceLocation": {
					"x": 0,
					"y": 0,
					"angle": 0
				},
				"relativeTo": [{
					"shapeId": 3,
					"shapeType": "RECTANGLE",
					"colour":"BLUE",
					"referenceLocation": {
						"x": "ignore",
						"y": "bottom",
						"angle": 0
					},
					"playersInContact": []
				}]
			}
		]
	}
]