This is BibTeX, Version 0.99dThe top-level auxiliary file: proceedings.aux
The style file: SIGCHI-Reference-Format.bst
Database file #1: refs.bib
Warning--empty address in ieee_software_engineering_standards_committee_1998
Warning--empty address in moggridge_2007
Warning--no journal in nielsen_1994
Warning--no number and no volume in nielsen_1994
Warning--page numbers missing in both pages and numpages fields in nielsen_1994
Warning--empty address in someren_barnard_sandberg_1994
Warning--empty address in tilley_2002
Warning--no journal in zaman_2016
Warning--no number and no volume in zaman_2016
Warning--page numbers missing in both pages and numpages fields in zaman_2016
(There were 10 warnings)
