\relax 
\providecommand\hyper@newdestlabel[2]{}
\providecommand\HyperFirstAtBeginDocument{\AtBeginDocument}
\HyperFirstAtBeginDocument{\ifx\hyper@anchor\@undefined
\global\let\oldcontentsline\contentsline
\gdef\contentsline#1#2#3#4{\oldcontentsline{#1}{#2}{#3}}
\global\let\oldnewlabel\newlabel
\gdef\newlabel#1#2{\newlabelxx{#1}#2}
\gdef\newlabelxx#1#2#3#4#5#6{\oldnewlabel{#1}{{#2}{#3}}}
\AtEndDocument{\ifx\hyper@anchor\@undefined
\let\contentsline\oldcontentsline
\let\newlabel\oldnewlabel
\fi}
\fi}
\global\let\hyper@last\relax 
\gdef\HyperFirstAtBeginDocument#1{#1}
\providecommand\HyField@AuxAddToFields[1]{}
\providecommand\HyField@AuxAddToCoFields[2]{}
\citation{processing_2016}
\citation{reactivision_2016}
\citation{fisica_2016}
\citation{ardulink_2016}
\citation{arduino_2016}
\citation{processing_2016}
\citation{reactivision_2016}
\citation{nngroup.com_1995}
\@writefile{toc}{\contentsline {section}{Introduction}{\thepage }{section.2}}
\newlabel{sec:Introduction}{{1}{\thepage }{Introduction}{section.2}{}}
\@writefile{toc}{\contentsline {section}{Design Concept}{\thepage }{section.4}}
\newlabel{sec:Design_Concept}{{2}{\thepage }{Design Concept}{section.4}{}}
\@writefile{toc}{\contentsline {section}{Prototype}{\thepage }{section.6}}
\newlabel{sec: Prototype}{{3}{\thepage }{Prototype}{section.6}{}}
\@writefile{toc}{\contentsline {section}{Tangible Interaction}{\thepage }{section.8}}
\newlabel{sec:Tangible_Interaction}{{4}{\thepage }{Tangible Interaction}{section.8}{}}
\@writefile{toc}{\contentsline {section}{Evaluation}{\thepage }{section.10}}
\newlabel{sec:Evaluation}{{5}{\thepage }{Evaluation}{section.10}{}}
\citation{usabilitybok.org_Cognitive_2016}
\citation{nielsen_1994}
\citation{usability.gov_Heuristic}
\citation{zaman_2016}
\citation{someren_barnard_sandberg_1994}
\citation{moggridge_2007}
\citation{tilley_2002}
\@writefile{toc}{\contentsline {subsection}{Expert Evaluation}{\thepage }{subsection.12}}
\newlabel{sec:Expert_Evaluation}{{5.1}{\thepage }{Expert Evaluation}{subsection.12}{}}
\@writefile{toc}{\contentsline {subsection}{User Evaluation}{\thepage }{subsection.14}}
\newlabel{sec:User_Evaluation}{{5.2}{\thepage }{User Evaluation}{subsection.14}{}}
\citation{nintendo_2016}
\@writefile{toc}{\contentsline {section}{Team working}{\thepage }{section.16}}
\newlabel{sec:Team_working}{{6}{\thepage }{Team working}{section.16}{}}
\@writefile{toc}{\contentsline {section}{Conclusion}{\thepage }{section.18}}
\newlabel{sec:Conclusion}{{7}{\thepage }{Conclusion}{section.18}{}}
\bibstyle{SIGCHI-Reference-Format}
\bibdata{refs}
\bibcite{arduino_2016}{1}
\bibcite{ardulink_2016}{2}
\bibcite{ieee_software_engineering_standards_committee_1998}{3}
\bibcite{fisica_2016}{4}
\bibcite{moggridge_2007}{5}
\bibcite{nielsen_1994}{6}
\bibcite{nintendo_2016}{7}
\bibcite{nngroup.com_1995}{8}
\bibcite{processing_2016}{9}
\bibcite{reactivision_2016}{10}
\bibcite{someren_barnard_sandberg_1994}{11}
\bibcite{tilley_2002}{12}
\bibcite{usabilitybok.org_Cognitive_2016}{13}
\bibcite{usability.gov_Heuristic}{14}
\bibcite{zaman_2016}{15}
\@writefile{toc}{\contentsline {section}{{References} }{\thepage }{section.20}}
\@writefile{toc}{\contentsline {section}{Appendix}{\thepage }{section.22}}
\newlabel{sec:Appendix}{{9}{\thepage }{Appendix}{section.22}{}}
\@writefile{toc}{\contentsline {subsection}{Images}{\thepage }{subsection.24}}
\newlabel{images}{{9.1}{\thepage }{Images}{subsection.24}{}}
\@writefile{lof}{\contentsline {figure}{\numberline {1}{\ignorespaces Graphical representation of Processing nodes}}{\thepage }{figure.25}}
\newlabel{figue:processing}{{1}{\thepage }{Graphical representation of Processing nodes}{figure.25}{}}
\@writefile{lof}{\contentsline {figure}{\numberline {2}{\ignorespaces Understanding Fisica Shape contact}}{\thepage }{figure.26}}
\newlabel{figue:fisica}{{2}{\thepage }{Understanding Fisica Shape contact}{figure.26}{}}
\@writefile{lof}{\contentsline {figure}{\numberline {3}{\ignorespaces Link between Java code and Arduino controlled devices}}{\thepage }{figure.27}}
\newlabel{figue:ardulink}{{3}{\thepage }{Link between Java code and Arduino controlled devices}{figure.27}{}}
\@writefile{toc}{\contentsline {subsection}{More User Evaluation Questions}{\thepage }{subsection.29}}
\newlabel{subsec:eval_questions}{{9.2}{\thepage }{More User Evaluation Questions}{subsection.29}{}}
\@writefile{toc}{\contentsline {subsection}{Known Bugs}{\thepage }{subsection.31}}
\newlabel{subsec:Known_Bugs}{{9.3}{\thepage }{Known Bugs}{subsection.31}{}}
\@writefile{lof}{\contentsline {figure}{\numberline {4}{\ignorespaces Array Out of bounds exception}}{\thepage }{figure.33}}
\newlabel{figue:bug_1}{{4}{\thepage }{Array Out of bounds exception}{figure.33}{}}
\@writefile{toc}{\contentsline {subsection}{Repository}{\thepage }{subsection.36}}
\newlabel{subsec:repository}{{9.4}{\thepage }{Repository}{subsection.36}{}}
\citation{ieee_software_engineering_standards_committee_1998}
\@writefile{toc}{\contentsline {subsection}{Test Cases}{\thepage }{subsection.38}}
\newlabel{subsec:Test_Cases}{{9.5}{\thepage }{Test Cases}{subsection.38}{}}
\@writefile{lot}{\contentsline {table}{\numberline {1}{\ignorespaces Random Test cases that failed or had failed in the past and needed to be retested \cite {ieee_software_engineering_standards_committee_1998} }}{\thepage }{table.39}}
\newlabel{tab: Test_cases}{{1}{\thepage }{Random Test cases that failed or had failed in the past and needed to be retested \protect \cite {ieee_software_engineering_standards_committee_1998}}{table.39}{}}
