\BOOKMARK [1][-]{section.2}{Introduction}{}% 1
\BOOKMARK [1][-]{section.4}{Design Concept}{}% 2
\BOOKMARK [1][-]{section.6}{Prototype}{}% 3
\BOOKMARK [1][-]{section.8}{Tangible Interaction}{}% 4
\BOOKMARK [1][-]{section.10}{Evaluation}{}% 5
\BOOKMARK [1][-]{section.12}{Team working}{}% 6
\BOOKMARK [1][-]{section.14}{Conclusion}{}% 7
\BOOKMARK [1][-]{section.16}{References }{}% 8
\BOOKMARK [1][-]{section.18}{Appendix}{}% 9
\BOOKMARK [2][-]{subsection.20}{Test Cases}{section.18}% 10
