\relax 
\providecommand\hyper@newdestlabel[2]{}
\providecommand\HyperFirstAtBeginDocument{\AtBeginDocument}
\HyperFirstAtBeginDocument{\ifx\hyper@anchor\@undefined
\global\let\oldcontentsline\contentsline
\gdef\contentsline#1#2#3#4{\oldcontentsline{#1}{#2}{#3}}
\global\let\oldnewlabel\newlabel
\gdef\newlabel#1#2{\newlabelxx{#1}#2}
\gdef\newlabelxx#1#2#3#4#5#6{\oldnewlabel{#1}{{#2}{#3}}}
\AtEndDocument{\ifx\hyper@anchor\@undefined
\let\contentsline\oldcontentsline
\let\newlabel\oldnewlabel
\fi}
\fi}
\global\let\hyper@last\relax 
\gdef\HyperFirstAtBeginDocument#1{#1}
\providecommand\HyField@AuxAddToFields[1]{}
\providecommand\HyField@AuxAddToCoFields[2]{}
\bibstyle{SIGCHI-Reference-Format}
\bibdata{sample}
\@writefile{toc}{\contentsline {section}{Introduction}{\thepage }{section.2}}
\newlabel{sec: Introduction}{{1}{\thepage }{Introduction}{section.2}{}}
\@writefile{toc}{\contentsline {section}{Design Concept}{\thepage }{section.4}}
\newlabel{sec: Design_Concept}{{2}{\thepage }{Design Concept}{section.4}{}}
\@writefile{toc}{\contentsline {section}{Prototype}{\thepage }{section.6}}
\newlabel{sec: Prototype}{{3}{\thepage }{Prototype}{section.6}{}}
\@writefile{toc}{\contentsline {section}{Tangible Interaction}{\thepage }{section.8}}
\newlabel{sec: Tangible_Interaction}{{4}{\thepage }{Tangible Interaction}{section.8}{}}
\@writefile{toc}{\contentsline {section}{Evaluation}{\thepage }{section.10}}
\newlabel{sec: Evaluation}{{5}{\thepage }{Evaluation}{section.10}{}}
\@writefile{toc}{\contentsline {section}{Team working}{\thepage }{section.12}}
\newlabel{sec: Team_working}{{6}{\thepage }{Team working}{section.12}{}}
\@writefile{toc}{\contentsline {section}{Conclusion}{\thepage }{section.14}}
\newlabel{sec: Conclusion}{{7}{\thepage }{Conclusion}{section.14}{}}
\@writefile{toc}{\contentsline {section}{{References} }{\thepage }{section.16}}
\@writefile{toc}{\contentsline {section}{Appendix}{\thepage }{section.18}}
\newlabel{sec: Appendix}{{9}{\thepage }{Appendix}{section.18}{}}
\@writefile{toc}{\contentsline {subsection}{Test Cases}{\thepage }{subsection.20}}
\newlabel{subsec: Test_Cases}{{9.1}{\thepage }{Test Cases}{subsection.20}{}}
\@writefile{lot}{\contentsline {table}{\numberline {1}{\ignorespaces Test cases}}{\thepage }{table.21}}
\newlabel{tab:table1}{{1}{\thepage }{Test cases}{table.21}{}}
