\relax 
\providecommand\hyper@newdestlabel[2]{}
\providecommand\HyperFirstAtBeginDocument{\AtBeginDocument}
\HyperFirstAtBeginDocument{\ifx\hyper@anchor\@undefined
\global\let\oldcontentsline\contentsline
\gdef\contentsline#1#2#3#4{\oldcontentsline{#1}{#2}{#3}}
\global\let\oldnewlabel\newlabel
\gdef\newlabel#1#2{\newlabelxx{#1}#2}
\gdef\newlabelxx#1#2#3#4#5#6{\oldnewlabel{#1}{{#2}{#3}}}
\AtEndDocument{\ifx\hyper@anchor\@undefined
\let\contentsline\oldcontentsline
\let\newlabel\oldnewlabel
\fi}
\fi}
\global\let\hyper@last\relax 
\gdef\HyperFirstAtBeginDocument#1{#1}
\providecommand\HyField@AuxAddToFields[1]{}
\providecommand\HyField@AuxAddToCoFields[2]{}
\bibstyle{SIGCHI-Reference-Format}
\citation{*}
\bibdata{bib}
\bibcite{hanna_risden_alexander_1997}{1}
\bibcite{macfarlane_mazzone_xu_2005}{2}
\bibcite{macfarlane_sim_horton_2005}{3}
\bibcite{nielsen_1992}{4}
\bibcite{malley_fraser}{5}
\@writefile{toc}{\contentsline {section}{{Bibliography} }{\thepage }{section.2}}
