%%% -*-BibTeX-*-
%%% Do NOT edit. File created by BibTeX with style
%%% ACM-Reference-Format-Journals [18-Jan-2012].

\begin{thebibliography}{00}

%%% ====================================================================
%%% NOTE TO THE USER: you can override these defaults by providing
%%% customized versions of any of these macros before the \bibliography
%%% command.  Each of them MUST provide its own final punctuation,
%%% except for \shownote{}, \showDOI{}, and \showURL{}.  The latter two
%%% do not use final punctuation, in order to avoid confusing it with
%%% the Web address.
%%%
%%% To suppress output of a particular field, define its macro to expand
%%% to an empty string, or better, \unskip, like this:
%%%
%%% \newcommand{\showDOI}[1]{\unskip}   % LaTeX syntax
%%%
%%% \def \showDOI #1{\unskip}           % plain TeX syntax
%%%
%%% ====================================================================

\ifx \showCODEN    \undefined \def \showCODEN     #1{\unskip}     \fi
\ifx \showDOI      \undefined \def \showDOI       #1{{\tt DOI:}\penalty0{#1}\ }
  \fi
\ifx \showISBNx    \undefined \def \showISBNx     #1{\unskip}     \fi
\ifx \showISBNxiii \undefined \def \showISBNxiii  #1{\unskip}     \fi
\ifx \showISSN     \undefined \def \showISSN      #1{\unskip}     \fi
\ifx \showLCCN     \undefined \def \showLCCN      #1{\unskip}     \fi
\ifx \shownote     \undefined \def \shownote      #1{#1}          \fi
\ifx \showarticletitle \undefined \def \showarticletitle #1{#1}   \fi
\ifx \showURL      \undefined \def \showURL       #1{#1}          \fi

\bibitem{hanna_risden_alexander_1997}
{Libby Hanna}, {Kirsten Risden}, {and} {Kirsten Alexander}. 1997.
\newblock \showarticletitle{Guidelines for usability testing with children}.
\newblock {\em interactions\/} {4}, 5 (1997), 9--14.
\newblock
\showDOI{%
\url{http://dx.doi.org/10.1145/264044.264045}}


\bibitem{macfarlane_mazzone_xu_2005}
{Stuart MacFarlane}, {Emanuela Mazzone}, {and} {Diana Xu}. 2005a.
\newblock \showarticletitle{Informant Design with Children-Designing Children's
  Tangible Technology}.
\newblock  (2005).
\newblock


\bibitem{macfarlane_sim_horton_2005}
{Stuart MacFarlane}, {Gavin Sim}, {and} {Matthew Horton}. 2005b.
\newblock \showarticletitle{Assessing usability and fun in educational
  software}.
\newblock {\em Proceeding of the 2005 conference on Interaction design and
  children - IDC '05\/} (2005).
\newblock
\showDOI{%
\url{http://dx.doi.org/10.1145/1109540.1109554}}


\bibitem{nielsen_1992}
{J. Nielsen}. 1992.
\newblock \showarticletitle{The usability engineering life cycle}.
\newblock {\em Computer\/} {25}, 3 (1992), 12--22.
\newblock
\showDOI{%
\url{http://dx.doi.org/10.1109/2.121503}}


\bibitem{malley_fraser}
{Claire OMalley} {and} {Danae~Stanton Fraser}.
\newblock {\em Literature Review in Learning with Tangible Technologies\/}
  (????).
\newblock


\end{thebibliography}
