This is BibTeX, Version 0.99dThe top-level auxiliary file: bib.aux
The style file: SIGCHI-Reference-Format.bst
Database file #1: bib.bib
Warning--no journal in macfarlane_mazzone_xu_2005
Warning--no number and no volume in macfarlane_mazzone_xu_2005
Warning--page numbers missing in both pages and numpages fields in macfarlane_mazzone_xu_2005
Warning--no number and no volume in macfarlane_sim_horton_2005
Warning--page numbers missing in both pages and numpages fields in macfarlane_sim_horton_2005
Warning--empty year in malley_fraser
Warning--empty title in malley_fraser
Warning--no number and no volume in malley_fraser
Warning--page numbers missing in both pages and numpages fields in malley_fraser
(There were 9 warnings)
