This is BibTeX, Version 0.99dThe top-level auxiliary file: proceedings.aux
The style file: SIGCHI-Reference-Format.bst
I found no \citation commands---while reading file proceedings.aux
Database file #1: sample.bib
(There was 1 error message)
