###################################
# Syntax Coloring Map For NewPing
###################################

###################################
# Datatypes (KEYWORD1)
###################################

Vibrator KEYWORD1

###################################
# Methods and Functions (KEYWORD2)
###################################

Vibrator	KEYWORD2
Loop	KEYWORD2
Activate	KEYWORD2
Setup	KEYWORD2

###################################
# Constants (LITERAL1)
###################################
