\BOOKMARK [1][-]{section.2}{Introduction}{}% 1
\BOOKMARK [1][-]{section.4}{Design Concept}{}% 2
\BOOKMARK [1][-]{section.6}{Prototype}{}% 3
\BOOKMARK [1][-]{section.8}{Tangible Interaction}{}% 4
\BOOKMARK [1][-]{section.10}{Evaluation}{}% 5
\BOOKMARK [2][-]{subsection.12}{Expert Evaluation}{section.10}% 6
\BOOKMARK [2][-]{subsection.14}{User Evaluation}{section.10}% 7
\BOOKMARK [2][-]{subsection.16}{Testing}{section.10}% 8
\BOOKMARK [1][-]{section.18}{Team working}{}% 9
\BOOKMARK [1][-]{section.20}{Conclusion}{}% 10
\BOOKMARK [1][-]{section.22}{References }{}% 11
\BOOKMARK [1][-]{section.24}{Appendix}{}% 12
\BOOKMARK [2][-]{subsection.26}{Images}{section.24}% 13
\BOOKMARK [2][-]{subsection.31}{Known Bugs}{section.24}% 14
\BOOKMARK [2][-]{subsection.36}{Test Cases}{section.24}% 15
