\relax 
\providecommand\hyper@newdestlabel[2]{}
\providecommand\HyperFirstAtBeginDocument{\AtBeginDocument}
\HyperFirstAtBeginDocument{\ifx\hyper@anchor\@undefined
\global\let\oldcontentsline\contentsline
\gdef\contentsline#1#2#3#4{\oldcontentsline{#1}{#2}{#3}}
\global\let\oldnewlabel\newlabel
\gdef\newlabel#1#2{\newlabelxx{#1}#2}
\gdef\newlabelxx#1#2#3#4#5#6{\oldnewlabel{#1}{{#2}{#3}}}
\AtEndDocument{\ifx\hyper@anchor\@undefined
\let\contentsline\oldcontentsline
\let\newlabel\oldnewlabel
\fi}
\fi}
\global\let\hyper@last\relax 
\gdef\HyperFirstAtBeginDocument#1{#1}
\providecommand\HyField@AuxAddToFields[1]{}
\providecommand\HyField@AuxAddToCoFields[2]{}
\citation{processing_2016}
\citation{reactivision_2016}
\citation{fisica_2016}
\citation{ardulink_2016}
\citation{arduino_2016}
\@writefile{toc}{\contentsline {section}{Introduction}{\thepage }{section.2}}
\newlabel{sec: Introduction}{{1}{\thepage }{Introduction}{section.2}{}}
\@writefile{toc}{\contentsline {section}{Design Concept}{\thepage }{section.4}}
\newlabel{sec: Design_Concept}{{2}{\thepage }{Design Concept}{section.4}{}}
\@writefile{toc}{\contentsline {section}{Prototype}{\thepage }{section.6}}
\newlabel{sec: Prototype}{{3}{\thepage }{Prototype}{section.6}{}}
\@writefile{toc}{\contentsline {section}{Tangible Interaction}{\thepage }{section.8}}
\newlabel{sec: Tangible_Interaction}{{4}{\thepage }{Tangible Interaction}{section.8}{}}
\citation{nngroup.com_1995}
\citation{usabilitybok.org}
\citation{moggridge_2007}
\citation{nielsen_1992}
\citation{zaman_2016}
\citation{someren_barnard_sandberg_1994}
\citation{tilley_2002}
\citation{moggridge_2007}
\@writefile{toc}{\contentsline {section}{Evaluation}{\thepage }{section.10}}
\newlabel{sec: Evaluation}{{5}{\thepage }{Evaluation}{section.10}{}}
\@writefile{toc}{\contentsline {subsection}{Expert Evaluation}{\thepage }{subsection.12}}
\@writefile{toc}{\contentsline {subsection}{User Evaluation}{\thepage }{subsection.14}}
\newlabel{sec:UserEvaluation}{{5.2}{\thepage }{User Evaluation}{subsection.14}{}}
\bibstyle{SIGCHI-Reference-Format}
\bibdata{sample}
\bibcite{arduino_2016}{1}
\bibcite{ardulink_2016}{2}
\bibcite{fisica_2016}{3}
\@writefile{toc}{\contentsline {subsection}{Testing}{\thepage }{subsection.16}}
\@writefile{toc}{\contentsline {section}{Team working}{\thepage }{section.18}}
\newlabel{sec: Team_working}{{6}{\thepage }{Team working}{section.18}{}}
\@writefile{toc}{\contentsline {section}{Conclusion}{\thepage }{section.20}}
\newlabel{sec: Conclusion}{{7}{\thepage }{Conclusion}{section.20}{}}
\@writefile{toc}{\contentsline {section}{{References} }{\thepage }{section.22}}
\bibcite{moggridge_2007}{4}
\bibcite{nielsen_1992}{5}
\bibcite{nngroup.com_1995}{6}
\bibcite{processing_2016}{7}
\bibcite{reactivision_2016}{8}
\bibcite{someren_barnard_sandberg_1994}{9}
\bibcite{tilley_2002}{10}
\bibcite{usabilitybok.org}{11}
\bibcite{zaman_2016}{12}
\@writefile{toc}{\contentsline {section}{Appendix}{\thepage }{section.24}}
\newlabel{sec:Appendix}{{9}{\thepage }{Appendix}{section.24}{}}
\@writefile{toc}{\contentsline {subsection}{Images}{\thepage }{subsection.26}}
\newlabel{images}{{9.1}{\thepage }{Images}{subsection.26}{}}
\@writefile{lof}{\contentsline {figure}{\numberline {1}{\ignorespaces Graphical representation of Processing nodes}}{\thepage }{figure.27}}
\newlabel{figue:processing}{{1}{\thepage }{Graphical representation of Processing nodes}{figure.27}{}}
\@writefile{lof}{\contentsline {figure}{\numberline {2}{\ignorespaces Understanding Fisica Shape contact}}{\thepage }{figure.28}}
\newlabel{figue:fisica}{{2}{\thepage }{Understanding Fisica Shape contact}{figure.28}{}}
\@writefile{lof}{\contentsline {figure}{\numberline {3}{\ignorespaces Link between Java code and Arduino controlled devices}}{\thepage }{figure.29}}
\newlabel{figue:ardulink}{{3}{\thepage }{Link between Java code and Arduino controlled devices}{figure.29}{}}
\@writefile{toc}{\contentsline {subsection}{Known Bugs}{\thepage }{subsection.31}}
\newlabel{subsec:Known_Bugs}{{9.2}{\thepage }{Known Bugs}{subsection.31}{}}
\@writefile{lof}{\contentsline {figure}{\numberline {4}{\ignorespaces Array Out of bounds exception}}{\thepage }{figure.33}}
\newlabel{figue:bug_1}{{4}{\thepage }{Array Out of bounds exception}{figure.33}{}}
\@writefile{toc}{\contentsline {subsection}{Test Cases}{\thepage }{subsection.36}}
\newlabel{subsec:Test_Cases}{{9.3}{\thepage }{Test Cases}{subsection.36}{}}
\@writefile{lot}{\contentsline {table}{\numberline {1}{\ignorespaces Random Test cases that failed or had failed in the past and needed to be retested}}{\thepage }{table.37}}
\newlabel{tab: Test_cases}{{1}{\thepage }{Random Test cases that failed or had failed in the past and needed to be retested}{table.37}{}}
