This is BibTeX, Version 0.99d (TeX Live 2015)
Capacity: max_strings=35307, hash_size=35307, hash_prime=30011
The top-level auxiliary file: /Users/jeangatt/Documents/Programming/csd-3810-novel-cw1/Document/Jean Gatt/.texpadtmp/proceedings.aux
The style file: ../SIGCHI-Reference-Format.bst
Reallocated singl_function (elt_size=4) to 100 items from 50.
Reallocated wiz_functions (elt_size=4) to 6000 items from 3000.
Database file #1: ../sample.bib
Reallocated singl_function (elt_size=4) to 100 items from 50.
Warning--empty address in moggridge_2007
Warning--empty address in someren_barnard_sandberg_1994
Warning--empty address in tilley_2002
Warning--empty year in usabilitybok.org
Warning--no journal in zaman_2016
Warning--no number and no volume in zaman_2016
Warning--page numbers missing in both pages and numpages fields in zaman_2016
You've used 12 entries,
            5283 wiz_defined-function locations,
            1273 strings with 15322 characters,
and the built_in function-call counts, 10076 in all, are:
= -- 1216
> -- 195
< -- 0
+ -- 48
- -- 323
* -- 606
:= -- 1116
add.period$ -- 63
call.type$ -- 12
change.case$ -- 62
chr.to.int$ -- 12
cite$ -- 19
duplicate$ -- 635
empty$ -- 480
format.name$ -- 78
if$ -- 2042
int.to.chr$ -- 1
int.to.str$ -- 0
missing$ -- 14
newline$ -- 134
num.names$ -- 72
pop$ -- 289
preamble$ -- 1
purify$ -- 110
quote$ -- 0
skip$ -- 154
stack$ -- 0
substring$ -- 1477
swap$ -- 30
text.length$ -- 503
text.prefix$ -- 0
top$ -- 0
type$ -- 96
warning$ -- 7
while$ -- 78
width$ -- 0
write$ -- 203
(There were 7 warnings)
